{
  "Version": "2012-10-17",
  "Statement": [
    {
      "Sid": "Stmt1643551590671",
      "Effect": "Allow",
      "Action": [
      "s3:GetObject",
      "s3:PutObject",
      "Logs:*"
      ],
      "Resource": "*"
    },
    {
      "Sid": "Stmt1643551641614",
      "Effect": "Allow",
      "Action": [
        "rekognition:*",
        "Logs:*"
      ],
      "Resource": "*"
    },
    {
      "Sid": "Stmt1643660651852",
      "Action": "dynamodb:*",
      "Effect": "Allow",
      "Resource": "*"
    },
    {
      "Sid": "Stmt1643661003318",
      "Action": "sns:*",
      "Effect": "Allow",
      "Resource": "*"
    },
    {
      "Sid": "Stmt1643726284895",
      "Action": [
        "execute-api:Invoke",
        "Logs:*"
      ],
      "Effect": "Allow",
      "Resource": "*"
    }
  ]
}
